/* XPM */
static char * lockedout_excluded_shared_xpm[] = {
"14 16 13 1",
" 	c None",
".	c #A5A6A5",
"+	c #555555",
"@	c #000000",
"#	c #FFFFFF",
"$	c #454545",
"%	c #727272",
"&	c #282828",
"*	c #3F3F3F",
"=	c #5F5F5F",
"-	c #151515",
";	c #FFFF63",
">	c #C0C0C0",
"              ",
"      ..     +",
"     .  @   +@",
"    . ## @ +@ ",
"   . #@.# $@  ",
"   .#@  .%@.  ",
"   .#@  %&@.  ",
"   .#@.+@#@   ",
"   @@@*@@#@   ",
"  .##=-### @  ",
"  .#+@;;;;;@  ",
"  >+@;;;;;;@  ",
"  +@;;;;;;;@  ",
" +@ .......@  ",
"+@ @@@@@@@@   ",
"@             "};
