/* XPM */
static char * lockedout_xpm[] = {
"24 18 5 1",
" 	c #D6D3CE",
".	c #A5A6A5",
"+	c #525552",
"@	c #000000",
"#	c #FFFFFF",
"                        ",
"                        ",
"              ..  +     ",
"             .  @+@     ",
"            . ##+@      ",
"           . #@+@ @     ",
"           .#@+@.#@     ",
"           .#+@ .#@     ",
"           .+@  .#@     ",
"       @@@@+@@  ..@     ",
"      .###+@# @         ",
"      .# +@   @         ",
"      .#+@    @         ",
"      .+@     @         ",
"      +@......@         ",
"     +@@@@@@@@          ",
"                        ",
"                        "};
