/* XPM */
static char * free_xpm[] = {
"24 18 4 1",
" 	c #D6D3CE",
".	c #A5A6A5",
"+	c #000000",
"@	c #FFFFFF",
"                        ",
"                        ",
"              ..        ",
"             .  +       ",
"            . @@ +      ",
"           . @+.@ +     ",
"           .@+  .@+     ",
"           .@+  .@+     ",
"           .@+  .@+     ",
"       +++++@+  ..+     ",
"      .@@@@@@ +         ",
"      .@      +         ",
"      .@      +         ",
"      .@      +         ",
"      . ......+         ",
"       +++++++          ",
"                        ",
"                        "};
